<?xml version="1.0" standalone="no"?>
<!DOCTYPE svg PUBLIC "-//W3C//DTD SVG 20010904//EN"
 "http://www.w3.org/TR/2001/REC-SVG-20010904/DTD/svg10.dtd">
<svg version="1.0" xmlns="http://www.w3.org/2000/svg"
 width="4500.000000pt" height="1125.000000pt" viewBox="0 0 4500.000000 1125.000000"
 preserveAspectRatio="xMidYMid meet">

<g transform="translate(0.000000,1125.000000) scale(0.100000,-0.100000)"
fill="#000000" stroke="none">
<path d="M26580 5630 l0 -2240 330 0 330 0 0 2240 0 2240 -330 0 -330 0 0
-2240z"/>
<path d="M0 5605 l0 -2225 835 0 835 0 0 2225 0 2225 -835 0 -835 0 0 -2225z"/>
<path d="M2150 5605 l0 -2225 840 0 840 0 2 863 3 864 613 -864 614 -863 704
0 704 0 0 2225 0 2225 -835 0 -835 0 -2 -867 -3 -868 -620 868 -620 867 -702
0 -703 0 0 -2225z"/>
<path d="M6950 5605 l0 -2225 1069 0 1069 0 1268 2193 c697 1205 1276 2207
1287 2225 l19 32 -675 0 -674 0 -1054 -1719 -1054 -1719 -6 316 c-4 175 -7
948 -8 1720 l-1 1402 -620 0 -620 0 0 -2225z"/>
<path d="M11274 6723 c-352 -609 -638 -1113 -638 -1120 3 -22 498 -873 507
-870 4 1 224 216 488 476 l480 474 962 -7 962 -8 17 60 c21 72 84 168 141 214
188 155 446 149 623 -14 146 -135 189 -355 104 -536 -35 -75 -130 -178 -198
-215 -187 -102 -421 -63 -566 94 -56 60 -104 147 -113 204 l-5 32 -102 7 c-55
3 -476 6 -935 6 l-834 1 -475 -468 -474 -468 347 -602 348 -603 548 0 549 0 0
224 0 224 -52 17 c-291 94 -418 427 -264 689 31 53 130 148 184 175 177 90
391 59 536 -78 67 -64 101 -118 126 -199 l18 -57 143 -6 c79 -4 414 -7 744 -8
l600 -1 358 622 c304 527 357 625 349 642 -6 12 -294 512 -640 1111 l-630
1090 -451 3 -451 2 -483 -441 -483 -442 27 -51 c97 -179 69 -399 -69 -543
-185 -193 -470 -200 -663 -17 -189 181 -193 466 -9 659 142 147 354 185 537
95 35 -17 67 -30 72 -28 11 4 841 757 841 763 0 3 -323 5 -719 5 l-718 0 -639
-1107z"/>
<path d="M15980 5605 l0 -2225 835 0 835 0 0 579 0 579 155 188 c85 104 159
190 163 192 4 1 211 -344 461 -768 l453 -770 885 0 c743 0 883 2 876 14 -4 7
-377 592 -828 1300 -451 709 -819 1290 -818 1293 1 2 365 410 810 906 444 495
814 909 821 919 13 17 -25 18 -996 18 l-1009 0 -479 -615 c-263 -338 -482
-615 -486 -615 -5 0 -8 277 -8 615 l0 615 -835 0 -835 0 0 -2225z"/>
<path d="M21130 5605 l0 -2225 1780 0 1780 0 0 610 0 610 -945 0 -945 0 2 198
3 197 813 3 812 2 0 620 0 620 -815 0 -815 0 0 200 0 200 945 0 945 0 0 595 0
595 -1780 0 -1780 0 0 -2225z"/>
<path d="M30588 7179 c-892 -64 -1501 -721 -1465 -1579 17 -396 158 -725 426
-991 262 -260 586 -408 980 -448 437 -45 932 70 1285 299 l96 62 0 594 0 594
-310 0 -310 0 -2 -427 -3 -428 -55 -27 c-294 -143 -717 -128 -986 36 -160 97
-271 220 -346 381 -67 144 -81 216 -82 420 -1 214 15 289 94 450 89 178 213
301 395 390 252 123 588 136 847 31 97 -39 203 -106 293 -183 l86 -74 212 196
c116 108 213 200 215 204 4 13 -164 168 -242 223 -159 112 -388 206 -601 248
-92 17 -356 43 -405 38 -8 0 -63 -4 -122 -9z"/>
<path d="M36898 7180 c-235 -18 -433 -71 -645 -175 -219 -107 -429 -286 -561
-478 -194 -282 -289 -660 -252 -1012 76 -749 634 -1279 1425 -1356 383 -37
803 59 1106 253 327 210 554 543 641 941 19 88 22 131 22 317 0 236 -13 318
-74 500 -220 658 -891 1066 -1662 1010z m371 -600 c169 -41 318 -126 438 -253
115 -122 190 -269 227 -450 22 -108 21 -317 -3 -432 -47 -228 -180 -432 -359
-554 -150 -102 -297 -149 -487 -158 -266 -12 -496 67 -672 231 -183 170 -277
382 -290 652 -14 281 70 526 241 713 128 138 339 244 541 270 96 13 266 4 364
-19z"/>
<path d="M32540 5671 l0 -1471 335 0 335 0 0 410 0 410 314 0 313 0 284 -410
284 -410 362 0 c200 0 363 2 363 4 0 3 -147 214 -326 471 -179 257 -324 468
-322 470 2 1 32 17 68 35 225 113 392 300 472 530 69 198 75 457 16 670 -95
347 -370 596 -772 700 -196 50 -233 52 -1003 57 l-723 5 0 -1471z m1475 885
c104 -31 186 -76 245 -135 98 -100 135 -211 128 -381 -8 -169 -67 -285 -185
-366 -144 -98 -230 -113 -660 -114 l-333 0 0 511 0 511 373 -5 c316 -3 381 -6
432 -21z"/>
<path d="M39133 6193 c3 -842 5 -958 21 -1033 82 -415 278 -694 602 -860 364
-187 942 -200 1336 -30 348 150 575 443 658 850 35 171 41 366 38 1210 l-3
805 -335 0 -335 0 -5 -930 c-5 -923 -6 -931 -28 -1010 -84 -304 -264 -448
-577 -462 -320 -14 -535 110 -631 364 -60 157 -58 119 -63 1118 l-6 920 -338
3 -338 2 4 -947z"/>
<path d="M42460 5671 l0 -1471 335 0 335 0 0 404 0 404 413 5 c441 4 499 10
687 64 548 157 840 612 755 1176 -63 417 -346 710 -799 827 -196 50 -233 52
-1003 57 l-723 5 0 -1471z m1497 878 c238 -74 353 -230 353 -482 0 -251 -128
-409 -385 -479 -74 -20 -104 -21 -435 -22 l-355 -1 -3 508 -2 509 372 -4 c365
-4 375 -5 455 -29z"/>
<path d="M12180 6909 c-56 -11 -115 -52 -155 -107 -25 -37 -30 -55 -33 -116
-3 -59 0 -81 18 -119 42 -88 121 -137 223 -137 138 0 239 102 239 241 0 156
-136 267 -292 238z"/>
<path d="M14415 5820 c-44 -13 -112 -75 -137 -124 -16 -30 -22 -59 -23 -106
-1 -260 339 -342 458 -110 58 112 20 248 -87 314 -39 25 -61 31 -115 33 -36 1
-80 -2 -96 -7z"/>
<path d="M13034 4531 c-115 -29 -192 -140 -181 -259 6 -68 23 -107 69 -152 62
-63 157 -85 249 -60 46 13 115 72 140 122 79 154 -23 338 -196 353 -28 2 -64
0 -81 -4z"/>
<path d="M13550 4187 c0 -44 -68 -167 -123 -222 -55 -55 -141 -105 -215 -124
l-42 -12 0 -224 0 -225 656 2 655 3 234 405 234 405 -282 6 c-155 3 -470 7
-699 8 l-418 1 0 -23z"/>
</g>
</svg>
